{
    "group": [
        {
            "id": 1,
            "name": "samochody"
        },
        {
            "id": 2,
            "name": "paliwo"
        }
    ],
    "tag": [
        {
            "id": 1,
            "name": "AUDI",
            "group_id": 1
        },
        {
            "id": 2,
            "name": "HONDA",
            "group_id": 1
        },
        {
            "id": 3,
            "name": "LPG",
            "group_id": 2
        },
        {
            "id": 4,
            "name": "PB95",
            "group_id": 2
        }
    ]
}
